<svg xmlns="http://www.w3.org/2000/svg" width="916.108" height="337.13" viewBox="0 0 916.108 337.13">
  <g id="commerce-and-shopping" transform="translate(-52.8 -65.6)">
    <g id="Group_1" data-name="Group 1" transform="translate(52.8 65.6)">
      <path id="Path_1" data-name="Path 1" d="M212.641,264.12a13.91,13.91,0,1,0,0,27.82h.732L242.047,264H212.641Zm0-46.61a13.91,13.91,0,1,0,0,27.82H261.2l28.674-27.942H212.641Zm0,0a13.91,13.91,0,1,0,0,27.82H261.2l28.674-27.942H212.641Zm0,46.61a13.91,13.91,0,1,0,0,27.82h.732L242.047,264H212.641Zm0,0a13.91,13.91,0,1,0,0,27.82h.732L242.047,264H212.641Zm0-46.61a13.91,13.91,0,1,0,0,27.82H261.2l28.674-27.942H212.641Zm0,0a13.91,13.91,0,1,0,0,27.82H261.2l28.674-27.942H212.641Zm0,46.61a13.91,13.91,0,1,0,0,27.82h.732L242.047,264H212.641Zm0,0a13.91,13.91,0,1,0,0,27.82h.732L242.047,264H212.641Zm0-46.61a13.91,13.91,0,1,0,0,27.82H261.2l28.674-27.942H212.641Zm0,0a13.91,13.91,0,1,0,0,27.82H261.2l28.674-27.942H212.641Zm0,46.61a13.91,13.91,0,1,0,0,27.82h.732L242.047,264H212.641Zm0,0a13.91,13.91,0,1,0,0,27.82h.732L242.047,264H212.641Zm0-46.61a13.91,13.91,0,1,0,0,27.82H261.2l28.674-27.942H212.641Zm0,0a13.91,13.91,0,1,0,0,27.82H261.2l28.674-27.942H212.641Zm0,46.61a13.91,13.91,0,1,0,0,27.82h.732L242.047,264H212.641Zm0,0a13.91,13.91,0,1,0,0,27.82h.732L242.047,264H212.641Zm0-46.61a13.91,13.91,0,1,0,0,27.82H261.2l28.674-27.942H212.641ZM371.261,65.6H129.3a76.548,76.548,0,0,0-76.5,76.5v20.865a13.9,13.9,0,0,0,13.91,13.91h48.562V387.6l27.942-27.21V176.878H308.667a13.9,13.9,0,0,0,13.91-13.91V142.1a48.618,48.618,0,0,1,81.507-35.873l20.011-19.523A76.549,76.549,0,0,0,371.261,65.6Zm-66.255,38.191a76.234,76.234,0,0,0-10.249,38.191v6.955H80.62v-6.955A48.741,48.741,0,0,1,129.3,93.3h181.8ZM212.641,264.12a13.91,13.91,0,1,0,0,27.82h.732L242.047,264H212.641Zm0-46.61a13.91,13.91,0,1,0,0,27.82H261.2l28.674-27.942H212.641Zm0,0a13.91,13.91,0,1,0,0,27.82H261.2l28.674-27.942H212.641Zm0,46.61a13.91,13.91,0,1,0,0,27.82h.732L242.047,264H212.641Zm0,0a13.91,13.91,0,1,0,0,27.82h.732L242.047,264H212.641Zm0-46.61a13.91,13.91,0,1,0,0,27.82H261.2l28.674-27.942H212.641Zm0,0a13.91,13.91,0,1,0,0,27.82H261.2l28.674-27.942H212.641Zm0,46.61a13.91,13.91,0,1,0,0,27.82h.732L242.047,264H212.641Zm0,0a13.91,13.91,0,1,0,0,27.82h.732L242.047,264H212.641Zm0-46.61a13.91,13.91,0,1,0,0,27.82H261.2l28.674-27.942H212.641Zm0,0a13.91,13.91,0,1,0,0,27.82H261.2l28.674-27.942H212.641Zm0,46.61a13.91,13.91,0,1,0,0,27.82h.732L242.047,264H212.641Zm0,0a13.91,13.91,0,1,0,0,27.82h.732L242.047,264H212.641Zm0-46.61a13.91,13.91,0,1,0,0,27.82H261.2l28.674-27.942H212.641Zm0,0a13.91,13.91,0,1,0,0,27.82H261.2l28.674-27.942H212.641Zm0,46.61a13.91,13.91,0,1,0,0,27.82h.732L242.047,264H212.641Z" transform="translate(-52.8 -65.6)" fill="#fff"/>
    </g>
    <g id="Group_2" data-name="Group 2" transform="translate(245.463 249.356)">
      <path id="Path_2" data-name="Path 2" d="M249.867,289.409a9.327,9.327,0,0,0-3.782.488c-.732.366-1.22,1.22-1.586,2.806l-5.979,18.79a24.192,24.192,0,0,0-.854,3.661,17.144,17.144,0,0,0-.244,2.2c0,.488.366.976,1.22,1.464a18.246,18.246,0,0,0,4.637,1.342l4.881.854a5.875,5.875,0,0,1,.854,2.928c0,1.464-.366,2.318-1.1,2.806-1.464-.122-2.928-.244-4.393-.244s-3.05-.122-4.759-.122h-7.443a12.641,12.641,0,0,1-2.44-.122c-2.806,0-5.369.122-7.687.244s-5.369.244-9.151.244a3.023,3.023,0,0,1-1.342-2.806,4.864,4.864,0,0,1,.854-2.928l4.393-.488a14.776,14.776,0,0,0,5.369-1.83c1.708-.976,3.294-3.172,4.515-6.223,1.464-3.294,2.928-6.955,4.515-11.1s3.416-9.151,5.613-15.008L250.6,246.7q2.928-7.5,4.759-12.446a20.768,20.768,0,0,0,1.586-8.175,18.146,18.146,0,0,0,5.491-2.318,34.271,34.271,0,0,0,4.393-3.294c1.22-1.1,2.2-2.074,3.05-2.928.732-.854,1.22-1.342,1.342-1.342,1.952,0,3.172,1.1,3.782,3.294q.915,3.477,2.562,8.419c.976,3.416,2.684,7.931,4.759,13.788l22.085,63.692c.854,2.44,1.586,4.393,2.318,6.223a15.522,15.522,0,0,0,2.2,4.271,11.188,11.188,0,0,0,2.684,2.684,9.814,9.814,0,0,0,3.782,1.342l6.223.976a4.031,4.031,0,0,1,.854,2.806,3.642,3.642,0,0,1-.976,2.928c-3.9-.244-7.931-.366-12.324-.366-4.271,0-8.541-.122-12.812-.122-4.148,0-7.809,0-11.225.122-3.416,0-6.955.244-10.737.366a3.135,3.135,0,0,1-1.464-2.684,3.317,3.317,0,0,1,1.1-3.05l5.247-.854c1.83-.366,3.05-.732,3.538-1.22a2.3,2.3,0,0,0,.854-1.586,14.418,14.418,0,0,0-.854-3.782c-.488-1.83-1.342-4.271-2.318-7.321L276.1,292.094a3.563,3.563,0,0,0-2.074-2.44,20.189,20.189,0,0,0-5.735-.488H249.867Zm17.448-8.663c1.83,0,3.05-.244,3.538-.854.488-.488.366-1.83-.244-3.9l-4.271-13.178q-1.83-5.125-3.294-9.883a73.073,73.073,0,0,0-2.562-7.2c-.732,1.708-1.708,4.148-3.05,7.443-1.22,3.172-2.44,6.711-3.661,10.493l-4.027,12.2q-1.1,3.294-.366,4.027c.488.488,1.708.854,3.782.854Z" transform="translate(-210.7 -216.2)" fill="#fff"/>
      <path id="Path_3" data-name="Path 3" d="M377.136,257.289a2.824,2.824,0,0,1,1.22,1.708,13.523,13.523,0,0,1,.244,2.318,14.457,14.457,0,0,1-.61,3.9,3.562,3.562,0,0,1-1.83,2.562H364.08a7.666,7.666,0,0,1,.366,2.318c0,.854.122,1.952.122,3.294a31,31,0,0,1-1.586,9.883,23.565,23.565,0,0,1-5.491,9.151,27.258,27.258,0,0,1-10.249,6.711c-4.271,1.708-9.639,2.562-15.984,2.562a34.3,34.3,0,0,1-3.66-.122c-1.1-.122-2.2-.244-3.05-.366a5.872,5.872,0,0,0-1.952,1.464,3.93,3.93,0,0,0-.854,2.44,4.706,4.706,0,0,0,2.318,4.271,10.834,10.834,0,0,0,5.979,1.586c2.806,0,5.857,0,9.151-.122s6.833-.122,10.615-.122a57.84,57.84,0,0,1,9.151.732,22.551,22.551,0,0,1,8.175,2.928,15.893,15.893,0,0,1,5.735,5.979,19.934,19.934,0,0,1,2.2,10.005,25.382,25.382,0,0,1-4.149,14.276A32.363,32.363,0,0,1,360.42,354.9a45.314,45.314,0,0,1-13.788,5.491,67.516,67.516,0,0,1-14.764,1.586,52.183,52.183,0,0,1-14.886-1.83,31.074,31.074,0,0,1-9.883-4.759,19.071,19.071,0,0,1-5.491-6.711,18.585,18.585,0,0,1-1.708-7.687,7.343,7.343,0,0,1,1.586-4.881,11.857,11.857,0,0,1,3.661-3.294c1.586-.976,3.172-1.952,4.515-2.928a25.392,25.392,0,0,1,3.417-2.074c.976-.488,1.464-.976,1.342-1.464s-.488-.732-1.1-.854a13.491,13.491,0,0,1-7.321-5,13.109,13.109,0,0,1-2.806-7.931,4.791,4.791,0,0,1,1.1-3.417,56.86,56.86,0,0,0,6.589-4.637c1.952-1.586,3.172-2.562,3.783-3.05a6.482,6.482,0,0,0,1.586-1.586,1.958,1.958,0,0,0-.244-1.952A19.915,19.915,0,0,1,306,289.989a22.5,22.5,0,0,1-3.782-13.056,24.473,24.473,0,0,1,1.952-9.761,23.692,23.692,0,0,1,5.979-8.419,30.331,30.331,0,0,1,9.883-5.857,39.624,39.624,0,0,1,13.91-2.2,47.829,47.829,0,0,1,13.544,1.83,51.805,51.805,0,0,1,10.737,4.271h18.913ZM331.258,327.57c-4.637,0-7.687.732-9.151,2.074a6.229,6.229,0,0,0-1.83,2.562,8.425,8.425,0,0,0-.488,3.05,17.08,17.08,0,0,0,5.735,13.3c3.783,3.294,8.907,5,15.5,5,5.247,0,9.4-1.22,12.446-3.538a11.289,11.289,0,0,0,4.637-9.4,13.279,13.279,0,0,0-1.22-6.1,10.072,10.072,0,0,0-3.416-4.026,16.433,16.433,0,0,0-5.125-2.318,25.583,25.583,0,0,0-6.223-.732H331.258Zm-4.515-38.313c2.074,3.538,4.759,5.369,8.175,5.369,2.562,0,4.759-1.22,6.589-3.782s2.684-6.833,2.684-12.812c0-6.589-.976-11.469-3.05-14.642s-4.515-4.759-7.443-4.759c-2.562,0-4.881,1.22-6.955,3.783-1.952,2.562-3.05,6.589-3.05,12.079C323.693,280.838,324.669,285.719,326.743,289.257Z" transform="translate(-191.062 -208.605)" fill="#fff"/>
      <path id="Path_4" data-name="Path 4" d="M374.549,275.821a46.939,46.939,0,0,0-.366-6.955,5.147,5.147,0,0,0-2.684-3.538l-2.318-1.464a2.863,2.863,0,0,1-.976-2.44,3.028,3.028,0,0,1,.976-2.44c1.83-.488,3.9-1.22,6.1-1.952s4.393-1.586,6.589-2.562,4.271-1.83,6.223-2.806,3.538-1.708,4.881-2.562a3.813,3.813,0,0,1,2.928,1.464c-.244,1.586-.366,3.05-.488,4.148a24.579,24.579,0,0,0-.122,2.806c0,.854.488,1.464,1.586,1.952a27.125,27.125,0,0,0,3.294-2.318,28.324,28.324,0,0,1,3.66-2.684,26.983,26.983,0,0,1,4.149-2.2,12.222,12.222,0,0,1,4.759-.854,9.036,9.036,0,0,1,6.1,2.562c1.952,1.708,2.806,4.027,2.806,7.077,0,3.782-1.1,6.467-3.294,8.175a11.921,11.921,0,0,1-7.2,2.44,9.22,9.22,0,0,1-6.345-2.928,18.724,18.724,0,0,0-4.148-2.806,6,6,0,0,0-2.074-.488c-2.074,0-3.05,3.294-3.05,9.761v25.013c0,2.806,0,5.125.122,6.711a13.882,13.882,0,0,0,.732,3.9,2.745,2.745,0,0,0,1.83,1.83,17.773,17.773,0,0,0,3.295.61l5.247.488a4.018,4.018,0,0,1,.976,2.928c0,1.464-.366,2.318-1.1,2.806-3.9-.244-7.565-.366-11.1-.366-3.416,0-7.077-.122-10.859-.122-3.416,0-6.711,0-10.127.122-3.417,0-6.345.244-9.151.366-.732-.488-1.1-1.342-1.1-2.806a4.018,4.018,0,0,1,.976-2.928l3.05-.366a16.267,16.267,0,0,0,3.172-.61,3.365,3.365,0,0,0,1.83-1.83,10.451,10.451,0,0,0,.854-4.026c.122-1.708.122-4.027.122-6.833V275.821Z" transform="translate(-176.884 -208.957)" fill="#fff"/>
      <path id="Path_5" data-name="Path 5" d="M439.115,279.874c-1.83,0-2.928.122-3.417.488s-.61,1.1-.61,2.44a27.813,27.813,0,0,0,1.464,8.907,23.582,23.582,0,0,0,4.271,7.687,20.227,20.227,0,0,0,7.2,5.491,23.636,23.636,0,0,0,10.005,2.074c1.22,0,2.44-.122,3.783-.244a11.751,11.751,0,0,0,3.9-1.1,17.862,17.862,0,0,0,3.9-2.562,17.107,17.107,0,0,0,3.538-4.515,3.531,3.531,0,0,1,2.806.61,3.405,3.405,0,0,1,1.464,3.05,36.14,36.14,0,0,1-5.979,8.663,34.562,34.562,0,0,1-7.2,5.735,27.717,27.717,0,0,1-7.687,3.172,33.871,33.871,0,0,1-7.565.976,35.857,35.857,0,0,1-14.52-2.684,32.666,32.666,0,0,1-10.615-7.2A29.62,29.62,0,0,1,417.4,300.25a36.51,36.51,0,0,1-2.2-12.69,39.051,39.051,0,0,1,2.562-14.276,34.682,34.682,0,0,1,7.321-11.591,33.578,33.578,0,0,1,11.1-7.687,33.158,33.158,0,0,1,14.032-2.806,31.852,31.852,0,0,1,11.226,1.83,22.243,22.243,0,0,1,8.175,5.125,23.518,23.518,0,0,1,5,7.443,24.6,24.6,0,0,1,1.708,8.907,7.389,7.389,0,0,1-.976,3.9c-.61.976-2.318,1.464-4.881,1.464H439.115Zm10.737-7.077a19.368,19.368,0,0,0,3.538-.366,10.748,10.748,0,0,0,3.172-1.1,1.793,1.793,0,0,0,.854-1.464,13.509,13.509,0,0,0,.244-2.318,9.232,9.232,0,0,0-2.2-6.467,8.458,8.458,0,0,0-6.467-2.44,11.272,11.272,0,0,0-4.759,1.1,13.959,13.959,0,0,0-4.027,2.806,16.917,16.917,0,0,0-2.806,3.782,8.344,8.344,0,0,0-1.1,4.026c0,1.1.61,1.708,1.83,2.074a31.586,31.586,0,0,0,5.735.366Z" transform="translate(-165.678 -208.495)" fill="#fff"/>
      <path id="Path_6" data-name="Path 6" d="M495.115,279.874c-1.83,0-2.928.122-3.417.488s-.61,1.1-.61,2.44a27.816,27.816,0,0,0,1.464,8.907,23.585,23.585,0,0,0,4.271,7.687,20.225,20.225,0,0,0,7.2,5.491,23.636,23.636,0,0,0,10.005,2.074c1.22,0,2.44-.122,3.782-.244a11.75,11.75,0,0,0,3.9-1.1,17.865,17.865,0,0,0,3.9-2.562,17.109,17.109,0,0,0,3.538-4.515,3.532,3.532,0,0,1,2.806.61,3.406,3.406,0,0,1,1.464,3.05,36.133,36.133,0,0,1-5.979,8.663,34.555,34.555,0,0,1-7.2,5.735,27.718,27.718,0,0,1-7.687,3.172,33.871,33.871,0,0,1-7.565.976,35.856,35.856,0,0,1-14.52-2.684,32.664,32.664,0,0,1-10.615-7.2A29.619,29.619,0,0,1,473.4,300.25a36.507,36.507,0,0,1-2.2-12.69,39.048,39.048,0,0,1,2.562-14.276,34.681,34.681,0,0,1,7.321-11.591,33.582,33.582,0,0,1,11.1-7.687,33.158,33.158,0,0,1,14.032-2.806,31.851,31.851,0,0,1,11.225,1.83,22.246,22.246,0,0,1,8.175,5.125,23.515,23.515,0,0,1,5,7.443,24.594,24.594,0,0,1,1.708,8.907,7.389,7.389,0,0,1-.976,3.9c-.61.976-2.318,1.464-4.881,1.464H495.115Zm10.737-7.077a19.369,19.369,0,0,0,3.538-.366,10.751,10.751,0,0,0,3.172-1.1,1.792,1.792,0,0,0,.854-1.464,13.509,13.509,0,0,0,.244-2.318,9.232,9.232,0,0,0-2.2-6.467,8.459,8.459,0,0,0-6.467-2.44,11.271,11.271,0,0,0-4.759,1.1,13.955,13.955,0,0,0-4.026,2.806,16.907,16.907,0,0,0-2.806,3.782,8.344,8.344,0,0,0-1.1,4.026c0,1.1.61,1.708,1.83,2.074a31.588,31.588,0,0,0,5.735.366Z" transform="translate(-153.349 -208.495)" fill="#fff"/>
      <path id="Path_7" data-name="Path 7" d="M535.6,275.433a46.961,46.961,0,0,0-.366-6.955,5.147,5.147,0,0,0-2.684-3.538l-2.318-1.464a2.863,2.863,0,0,1-.976-2.44,3.028,3.028,0,0,1,.976-2.44c1.83-.488,3.9-1.22,6.223-1.952s4.515-1.586,6.711-2.44,4.271-1.708,6.345-2.562a33.51,33.51,0,0,0,4.759-2.44,3.814,3.814,0,0,1,2.928,1.464c0,1.22-.122,2.562-.244,4.149s-.244,2.684-.244,3.172c0,.854.244,1.342.854,1.342a2.571,2.571,0,0,0,1.342-.488c.61-.366,1.22-.61,1.708-.854.854-.488,1.952-1.22,3.294-1.952a31.193,31.193,0,0,1,4.515-2.074,52.968,52.968,0,0,1,5.247-1.708,23.251,23.251,0,0,1,13.91.732,16.229,16.229,0,0,1,6.467,4.759,10.05,10.05,0,0,0,2.318,2.318,2.873,2.873,0,0,0,1.586.61,3.5,3.5,0,0,0,1.708-.854,38.191,38.191,0,0,1,3.538-1.952c.976-.488,2.074-.976,3.295-1.708a26.288,26.288,0,0,1,4.149-2.074,31.686,31.686,0,0,1,5.125-1.83,23.609,23.609,0,0,1,5.979-.732,20.53,20.53,0,0,1,8.541,1.586,17.426,17.426,0,0,1,6.1,4.393,20.076,20.076,0,0,1,3.783,6.467,24.045,24.045,0,0,1,1.342,7.931v27.942c0,2.806,0,5.125.122,6.711a13.878,13.878,0,0,0,.732,3.9,2.744,2.744,0,0,0,1.83,1.83,15.942,15.942,0,0,0,3.295.854l2.562.366a3.642,3.642,0,0,1,.976,2.928c0,1.464-.366,2.318-1.1,2.806-2.44-.244-5.369-.366-8.419-.366-3.172,0-6.711-.122-10.615-.122-3.294,0-6.467,0-9.639.122-3.172,0-5.857.244-8.175.366-.732-.488-1.1-1.342-1.1-2.806a3.642,3.642,0,0,1,.976-2.928l2.562-.366c2.074-.244,3.416-.976,3.9-2.318s.854-4.148.854-8.663V274.579a12.719,12.719,0,0,0-2.562-8.053c-1.708-2.2-4.515-3.294-8.3-3.294a12.219,12.219,0,0,0-5.857,1.342,8.626,8.626,0,0,0-3.294,2.806c-.732.732-1.1,2.44-1.1,4.881v30.016c0,2.2,0,3.9.122,5.247a17.766,17.766,0,0,0,.61,3.294,3.262,3.262,0,0,0,1.342,1.708,5.3,5.3,0,0,0,2.318.61l2.562.366a3.642,3.642,0,0,1,.976,2.928c0,1.464-.366,2.318-1.1,2.806-2.44-.244-5.125-.366-7.931-.366s-5.979-.122-9.639-.122c-3.294,0-6.345,0-9.4.122-3.05,0-5.613.244-7.809.366-.732-.488-1.1-1.342-1.1-2.806a3.642,3.642,0,0,1,.976-2.928l2.562-.366a9.019,9.019,0,0,0,2.318-.61,3.988,3.988,0,0,0,1.342-1.708,11.33,11.33,0,0,0,.61-3.294c.122-1.342.122-3.172.122-5.247V274.7a12.72,12.72,0,0,0-2.562-8.053q-2.562-3.295-8.419-3.294a10.754,10.754,0,0,0-5.491,1.342,12.867,12.867,0,0,0-3.295,2.562,5.14,5.14,0,0,0-1.1,2.318,28.879,28.879,0,0,0-.244,3.661v29.04c0,2.2,0,3.9.122,5.247a8.351,8.351,0,0,0,.61,3.294,3.261,3.261,0,0,0,1.342,1.708,6.7,6.7,0,0,0,2.684.61l2.562.366a3.642,3.642,0,0,1,.976,2.928c0,1.464-.366,2.318-1.1,2.806q-3.843-.366-8.053-.366c-2.807,0-6.1-.122-10.005-.122-3.661,0-7.077,0-10.127.122-3.05,0-5.857.244-8.419.366a3.023,3.023,0,0,1-1.342-2.806,3.642,3.642,0,0,1,.976-2.928l2.562-.366a14.6,14.6,0,0,0,3.172-.854,3.364,3.364,0,0,0,1.83-1.83,10.31,10.31,0,0,0,.854-3.9c.122-1.708.122-3.9.122-6.711v-24.4Z" transform="translate(-141.24 -208.935)" fill="#fff"/>
      <path id="Path_8" data-name="Path 8" d="M658.415,279.874c-1.83,0-2.929.122-3.416.488s-.61,1.1-.61,2.44a27.816,27.816,0,0,0,1.464,8.907,23.587,23.587,0,0,0,4.271,7.687,20.227,20.227,0,0,0,7.2,5.491,23.636,23.636,0,0,0,10.005,2.074c1.22,0,2.44-.122,3.782-.244a11.753,11.753,0,0,0,3.9-1.1,17.864,17.864,0,0,0,3.9-2.562,17.107,17.107,0,0,0,3.539-4.515,3.531,3.531,0,0,1,2.806.61,3.405,3.405,0,0,1,1.464,3.05,36.137,36.137,0,0,1-5.979,8.663,34.562,34.562,0,0,1-7.2,5.735,27.718,27.718,0,0,1-7.687,3.172,33.872,33.872,0,0,1-7.565.976,35.856,35.856,0,0,1-14.52-2.684,32.665,32.665,0,0,1-10.615-7.2A29.62,29.62,0,0,1,636.7,300.25a36.5,36.5,0,0,1-2.2-12.69,39.053,39.053,0,0,1,2.562-14.276,34.687,34.687,0,0,1,7.321-11.591,33.581,33.581,0,0,1,11.1-7.687,33.158,33.158,0,0,1,14.032-2.806,31.85,31.85,0,0,1,11.225,1.83,22.243,22.243,0,0,1,8.175,5.125,23.511,23.511,0,0,1,5,7.443,24.594,24.594,0,0,1,1.708,8.907,7.389,7.389,0,0,1-.976,3.9c-.61.976-2.318,1.464-4.881,1.464H658.415Zm10.737-7.077a19.371,19.371,0,0,0,3.539-.366,10.751,10.751,0,0,0,3.172-1.1,1.793,1.793,0,0,0,.854-1.464,13.534,13.534,0,0,0,.244-2.318,9.232,9.232,0,0,0-2.2-6.467,8.459,8.459,0,0,0-6.467-2.44,11.271,11.271,0,0,0-4.759,1.1,13.951,13.951,0,0,0-4.026,2.806,16.911,16.911,0,0,0-2.807,3.782,8.344,8.344,0,0,0-1.1,4.026c0,1.1.61,1.708,1.83,2.074a31.586,31.586,0,0,0,5.735.366Z" transform="translate(-117.397 -208.495)" fill="#fff"/>
      <path id="Path_9" data-name="Path 9" d="M699.027,275.433a46.961,46.961,0,0,0-.366-6.955,5.147,5.147,0,0,0-2.685-3.538l-2.318-1.464a2.864,2.864,0,0,1-.976-2.44,3.028,3.028,0,0,1,.976-2.44c1.83-.488,3.9-1.22,6.223-1.952s4.637-1.586,6.833-2.44,4.271-1.708,6.223-2.562a41.925,41.925,0,0,0,4.759-2.44,3.813,3.813,0,0,1,2.928,1.464c0,1.22-.122,2.562-.244,4.149s-.244,2.684-.244,3.172c0,.854.244,1.342.854,1.342a2.572,2.572,0,0,0,1.342-.488c.61-.366,1.22-.61,1.708-.854.854-.488,1.952-1.22,3.294-1.952a38.7,38.7,0,0,1,4.515-2.074c1.708-.61,3.416-1.22,5.247-1.708a21.228,21.228,0,0,1,5.491-.732,22.335,22.335,0,0,1,8.907,1.586,18.435,18.435,0,0,1,6.345,4.393,18.1,18.1,0,0,1,3.782,6.467,24.035,24.035,0,0,1,1.342,7.931v27.942c0,2.806,0,5.125.122,6.711a10.312,10.312,0,0,0,.854,3.9,3.179,3.179,0,0,0,1.952,1.83,14.966,14.966,0,0,0,3.538.854l2.563.366a3.643,3.643,0,0,1,.976,2.928c0,1.464-.366,2.318-1.1,2.806q-3.661-.366-8.785-.366c-3.416,0-6.955-.122-10.859-.122-3.295,0-6.345,0-9.4.122-3.05,0-5.735.244-8.175.366-.732-.488-1.1-1.342-1.1-2.806a3.643,3.643,0,0,1,.976-2.928l2.928-.488a17.681,17.681,0,0,0,2.318-.732,2.991,2.991,0,0,0,1.342-1.586,9.592,9.592,0,0,0,.61-3.05c.122-1.342.122-3.05.122-5.369V274.823a12.833,12.833,0,0,0-2.562-8.175q-2.562-3.294-8.785-3.294a11.719,11.719,0,0,0-5.735,1.342,9.619,9.619,0,0,0-3.294,2.562,5.141,5.141,0,0,0-1.1,2.318,28.834,28.834,0,0,0-.244,3.66v29.04c0,2.2,0,3.9.122,5.247a8.353,8.353,0,0,0,.61,3.294,3.26,3.26,0,0,0,1.342,1.708,6.692,6.692,0,0,0,2.684.61l2.563.366a3.642,3.642,0,0,1,.976,2.928c0,1.464-.366,2.318-1.1,2.806q-3.843-.366-8.053-.366c-2.806,0-6.1-.122-10.005-.122-3.417,0-6.833,0-10.127.122-3.294,0-6.345.244-9.151.366-.732-.488-1.1-1.342-1.1-2.806a3.642,3.642,0,0,1,.976-2.928l2.562-.366a15.351,15.351,0,0,0,3.417-.854,4.046,4.046,0,0,0,1.952-1.83,10.307,10.307,0,0,0,.854-3.9c.122-1.708.244-3.9.244-6.711v-24.4Z" transform="translate(-105.42 -208.935)" fill="#fff"/>
      <path id="Path_10" data-name="Path 10" d="M794.7,264.788c-1.1,0-1.708.122-1.952.488a8.206,8.206,0,0,0-.366,3.294v24.4c0,2.318,0,4.515.122,6.833a19.455,19.455,0,0,0,1.22,6.223,11.122,11.122,0,0,0,3.294,4.515c1.464,1.1,3.782,1.708,6.711,1.708a8.752,8.752,0,0,0,3.538-.732,20.814,20.814,0,0,0,3.294-1.708c1.708.61,2.44,2.074,2.318,4.271a28.933,28.933,0,0,1-9.639,6.589,32.425,32.425,0,0,1-13.788,2.806c-6.711,0-11.469-1.708-14.154-5.247-2.684-3.416-4.026-7.931-4.026-13.3V268.692a7.86,7.86,0,0,0-.366-3.172c-.244-.366-1.22-.61-2.685-.61h-5a2.6,2.6,0,0,1-1.708-2.318,2.664,2.664,0,0,1,.732-2.806,42.313,42.313,0,0,0,7.2-3.294c2.319-1.342,4.393-2.684,6.345-4.026a48.057,48.057,0,0,0,5.247-4.515,58.682,58.682,0,0,0,6.711-8.175,4.093,4.093,0,0,1,2.562-.366,3.226,3.226,0,0,1,2.318,1.1v12.2a6.488,6.488,0,0,0,.366,2.806c.244.366,1.22.488,2.684.488H810.2a3.624,3.624,0,0,1,1.342,3.05,9.863,9.863,0,0,1-.488,3.05,4.43,4.43,0,0,1-1.586,2.562H794.7Z" transform="translate(-89.453 -211.101)" fill="#fff"/>
    </g>
  </g>
</svg>
