<svg id="_4d63c31a3ea24956dae9d662114dfa43" data-name="4d63c31a3ea24956dae9d662114dfa43" xmlns="http://www.w3.org/2000/svg" xmlns:xlink="http://www.w3.org/1999/xlink" width="281.414" height="83.382" viewBox="0 0 281.414 83.382">
  <defs>
    <linearGradient id="linear-gradient" x1="0.907" y1="-6.392" x2="-0.384" y2="-5.721" gradientUnits="objectBoundingBox">
      <stop offset="0" stop-color="#00a0ff"/>
      <stop offset="0.007" stop-color="#00a1ff"/>
      <stop offset="0.26" stop-color="#00beff"/>
      <stop offset="0.512" stop-color="#00d2ff"/>
      <stop offset="0.76" stop-color="#00dfff"/>
      <stop offset="1" stop-color="#00e3ff"/>
    </linearGradient>
    <linearGradient id="linear-gradient-2" x1="1.077" y1="-18.441" x2="-1.307" y2="-18.441" gradientUnits="objectBoundingBox">
      <stop offset="0" stop-color="#ffe000"/>
      <stop offset="0.409" stop-color="#ffbd00"/>
      <stop offset="0.775" stop-color="orange"/>
      <stop offset="1" stop-color="#ff9c00"/>
    </linearGradient>
    <linearGradient id="linear-gradient-3" x1="0.863" y1="-12.314" x2="-0.5" y2="-10.549" gradientUnits="objectBoundingBox">
      <stop offset="0" stop-color="#ff3a44"/>
      <stop offset="1" stop-color="#c31162"/>
    </linearGradient>
    <linearGradient id="linear-gradient-4" x1="-0.188" y1="-13.092" x2="0.421" y2="-12.3" gradientUnits="objectBoundingBox">
      <stop offset="0" stop-color="#32a071"/>
      <stop offset="0.069" stop-color="#2da771"/>
      <stop offset="0.476" stop-color="#15cf74"/>
      <stop offset="0.801" stop-color="#06e775"/>
      <stop offset="1" stop-color="#00f076"/>
    </linearGradient>
  </defs>
  <path id="Path_4735" data-name="Path 4735" d="M270.991,83.382H10.423A10.321,10.321,0,0,1,0,72.959V10.423A10.321,10.321,0,0,1,10.423,0H270.991a10.321,10.321,0,0,1,10.423,10.423V72.959A10.321,10.321,0,0,1,270.991,83.382Z"/>
  <path id="Path_4736" data-name="Path 4736" d="M270.991,1.668a8.808,8.808,0,0,1,8.755,8.755V72.959a8.808,8.808,0,0,1-8.755,8.755H10.423a8.808,8.808,0,0,1-8.755-8.755V10.423a8.808,8.808,0,0,1,8.755-8.755H270.991m0-1.668H10.423A10.453,10.453,0,0,0,0,10.423V72.959A10.321,10.321,0,0,0,10.423,83.382H270.991a10.321,10.321,0,0,0,10.423-10.423V10.423A10.453,10.453,0,0,0,270.991,0Z" fill="#a6a6a6"/>
  <path id="Path_4737" data-name="Path 4737" d="M53.907,13.779a5.678,5.678,0,0,1-1.459,4.169,6.543,6.543,0,0,1-9.172,0A6.129,6.129,0,0,1,41.4,13.362a6.129,6.129,0,0,1,1.876-4.586A6.129,6.129,0,0,1,47.862,6.9a5.55,5.55,0,0,1,2.5.625A4.539,4.539,0,0,1,52.24,8.985L51.2,10.027a3.887,3.887,0,0,0-3.335-1.459,4.148,4.148,0,0,0-3.335,1.459,4.294,4.294,0,0,0-1.459,3.544,4.294,4.294,0,0,0,1.459,3.544,5.368,5.368,0,0,0,3.335,1.459,4.572,4.572,0,0,0,3.544-1.459,3.452,3.452,0,0,0,1.042-2.5H47.862V12.945h6.045v.834ZM63.5,8.568H57.868v3.961h5.211v1.459H57.868v3.961H63.5v1.668H56.2V7.108h7.3Zm6.879,11.048H68.708V8.568H65.164V7.108h8.755V8.568H70.375Zm9.589,0V7.108h1.668V19.616Zm8.755,0H87.052V8.568H83.508V7.108h8.547V8.568H88.511Zm19.8-1.668a6.543,6.543,0,0,1-9.172,0,6.129,6.129,0,0,1-1.876-4.586A6.129,6.129,0,0,1,99.35,8.776a6.543,6.543,0,0,1,9.172,0,6.129,6.129,0,0,1,1.876,4.586A6.129,6.129,0,0,1,108.522,17.948ZM100.6,16.906a4.919,4.919,0,0,0,3.335,1.459,4.148,4.148,0,0,0,3.335-1.459,5.029,5.029,0,0,0,1.459-3.544,4.294,4.294,0,0,0-1.459-3.544,4.919,4.919,0,0,0-3.335-1.459A4.148,4.148,0,0,0,100.6,9.818a5.029,5.029,0,0,0-1.459,3.544A4.294,4.294,0,0,0,100.6,16.906Zm12.09,2.71V7.108h1.876l6.045,9.8v-9.8h1.668V19.616h-1.668L114.151,9.4V19.616h-1.459Z" transform="translate(44.9 7.483)" fill="#fff" stroke="#fff" stroke-miterlimit="10" stroke-width="0.2"/>
  <path id="Path_4738" data-name="Path 4738" d="M97.383,26.9a8.77,8.77,0,0,0-8.964,8.964,8.9,8.9,0,0,0,8.964,8.964,8.77,8.77,0,0,0,8.964-8.964A8.648,8.648,0,0,0,97.383,26.9Zm0,14.175a5.174,5.174,0,0,1-5-5.42,5.174,5.174,0,0,1,5-5.42c2.71,0,5,2.085,5,5.42A5.174,5.174,0,0,1,97.383,41.072ZM78,26.9a8.77,8.77,0,0,0-8.964,8.964A8.9,8.9,0,0,0,78,44.824a8.77,8.77,0,0,0,8.964-8.964A8.648,8.648,0,0,0,78,26.9Zm0,14.175a5.174,5.174,0,0,1-5-5.42,5.174,5.174,0,0,1,5-5.42c2.71,0,5,2.085,5,5.42A5.174,5.174,0,0,1,78,41.072ZM54.858,29.607v3.752h8.964a7.882,7.882,0,0,1-2.085,4.794,9.227,9.227,0,0,1-6.879,2.71,9.705,9.705,0,0,1-9.8-10.006,9.833,9.833,0,0,1,9.8-10.006,10.336,10.336,0,0,1,6.879,2.71l2.71-2.71a13.358,13.358,0,0,0-9.38-3.752A14.062,14.062,0,0,0,41.1,30.858,14.062,14.062,0,0,0,55.066,44.616a12,12,0,0,0,9.589-3.961A12.549,12.549,0,0,0,67.991,31.9a7.816,7.816,0,0,0-.208-2.293H54.858ZM149.5,32.526c-.834-2.085-2.918-5.628-7.5-5.628s-8.338,3.544-8.338,8.964a8.723,8.723,0,0,0,8.755,8.964,8.551,8.551,0,0,0,7.3-3.961l-2.918-2.085a5.081,5.081,0,0,1-4.378,2.5,4.523,4.523,0,0,1-4.378-2.71l11.882-5-.417-1.042Zm-12.09,2.918a5.064,5.064,0,0,1,4.586-5.211,3.687,3.687,0,0,1,3.335,1.876l-7.921,3.335Zm-9.8,8.547h3.961V17.934h-3.961Zm-6.254-15.217a6.864,6.864,0,0,0-4.794-2.085,8.957,8.957,0,0,0-8.547,8.964,8.632,8.632,0,0,0,8.547,8.755,5.985,5.985,0,0,0,4.586-2.085h.208v1.251c0,3.335-1.876,5.211-4.794,5.211a4.631,4.631,0,0,1-4.378-3.127l-3.335,1.459a8.6,8.6,0,0,0,7.921,5.211c4.586,0,8.338-2.71,8.338-9.172V27.314h-3.752v1.459Zm-4.586,12.3a5.174,5.174,0,0,1-5-5.42,5.174,5.174,0,0,1,5-5.42c2.71,0,4.794,2.293,4.794,5.42S119.479,41.072,116.769,41.072Zm50.863-23.138h-9.38V43.991h3.961v-9.8h5.42c4.378,0,8.547-3.127,8.547-8.13S172.01,17.934,167.632,17.934Zm.208,12.507h-5.628V21.478h5.628a4.579,4.579,0,0,1,4.586,4.378,4.771,4.771,0,0,1-4.586,4.586Zm23.972-3.752c-2.918,0-5.837,1.251-6.879,3.961l3.544,1.459a3.682,3.682,0,0,1,3.544-1.876,3.917,3.917,0,0,1,4.169,3.335v.208a8.268,8.268,0,0,0-3.961-1.042c-3.752,0-7.5,2.085-7.5,5.837,0,3.544,3.127,5.837,6.462,5.837a5.866,5.866,0,0,0,5-2.5h.208v2.085h3.752V33.985c-.417-4.586-3.961-7.3-8.338-7.3ZM191.4,41.072c-1.251,0-3.127-.625-3.127-2.293,0-2.085,2.293-2.71,4.169-2.71a8.061,8.061,0,0,1,3.544.834A4.855,4.855,0,0,1,191.4,41.072Zm21.888-13.758-4.378,11.257H208.7l-4.586-11.257h-4.169l6.879,15.843-3.961,8.755h3.961l10.631-24.6Zm-35.02,16.676h3.961V17.934h-3.961Z" transform="translate(44.575 18.546)" fill="#fff"/>
  <path id="Path_4739" data-name="Path 4739" d="M10.834,7.5A4.075,4.075,0,0,0,10,10.418V56.487a4.124,4.124,0,0,0,1.042,2.918l.208.208L37.1,33.765v-.417Z" transform="translate(10.845 8.134)" fill="url(#linear-gradient)"/>
  <path id="Path_4740" data-name="Path 4740" d="M31.447,33.519,22.9,24.972v-.625L31.447,15.8l.208.208,10.214,5.837c2.918,1.668,2.918,4.378,0,6.045Z" transform="translate(24.836 17.136)" fill="url(#linear-gradient-2)"/>
  <path id="Path_4741" data-name="Path 4741" d="M45.212,28.755,36.457,20,10.4,46.057c1.042,1.042,2.5,1.042,4.378.208l30.434-17.51" transform="translate(11.279 21.691)" fill="url(#linear-gradient-3)"/>
  <path id="Path_4742" data-name="Path 4742" d="M45.212,25.158,14.778,7.857c-1.876-1.042-3.335-.834-4.378.208L36.457,33.913l8.755-8.755Z" transform="translate(11.279 7.778)" fill="url(#linear-gradient-4)"/>
  <path id="Path_4743" data-name="Path 4743" d="M45,24.1,14.778,41.193a3.409,3.409,0,0,1-4.169,0L10.4,41.4l.208.208a3.409,3.409,0,0,0,4.169,0Z" transform="translate(11.279 26.138)" opacity="0.2"/>
  <path id="Path_4744" data-name="Path 4744" d="M10.834,45.64A4.075,4.075,0,0,1,10,42.722v.208a4.124,4.124,0,0,0,1.042,2.918V45.64h-.208ZM55.86,22.71,45.437,28.547l.208.208L55.86,22.918A3.465,3.465,0,0,0,57.945,20C57.945,21.042,57.111,21.876,55.86,22.71Z" transform="translate(10.845 21.691)" opacity="0.12"/>
  <path id="Path_4745" data-name="Path 4745" d="M15.211,8.055,55.86,31.194c1.251.834,2.085,1.668,2.085,2.71a3.465,3.465,0,0,0-2.085-2.918L15.211,8.055C12.293,6.179,10,7.43,10,10.765v.208C10,7.847,12.293,6.387,15.211,8.055Z" transform="translate(10.845 7.787)" fill="#fff" opacity="0.25"/>
</svg>
